{
  "meta": {
    "count": "5233",
    "next": "http://open-api.myhelsinki.fi/v1/events/?limit=2&start=2"
  },
  "data": [
    {
      "id": "linkedevents:agg-151",
      "name": {
        "fi": "NEXO – Luovan kirjoittamisen työpaja",
        "en": null,
        "sv": "NEXO – Verkstad för kreativt skrivande",
        "zh": null
      },
      "source_type": {
        "id": 1,
        "name": "LinkedEvents"
      },
      "info_url": null,
      "modified_at": "2020-09-04T11:01:33.741Z",
      "location": {
        "lat": 60.18269729614258,
        "lon": 24.960548400878906,
        "address": {
          "street_address": "Kaikukatu 4, Helsinki",
          "postal_code": "00530",
          "locality": "Helsinki"
        }
      },
      "description": {
        "intro": "Viikoittaisissa tapaamisissa tutustumme luovan kirjoittamisen perusteisiin ja luovaan kirjoittamiseen itsetutkistelun välineenä.",
        "body": "<p>Viikoittaisissa tapaamisissa tutustumme luovan kirjoittamisen perusteisiin ja luovaan kirjoittamiseen itsetutkistelun välineenä.</p><p>Kirjoittamisen kautta tutkimme identiteettiä ja osallisuutta. Työpaja tarjoaa ainutlaatuisen kolmikielisen tilan (suomi, englanti, espanja) erityisesti teille, jotka vasta alatte tutkia identiteettiänne kirjoittajina.</p><p>Työpajassa vuorottelevat teoria- ja kirjoittamissessiot. Kirjoittamisen ohjaussessioissa osanottajat tutustutetaan luovan kirjoittamisen käsitteisiin ja tekniikoihin. Vapaissa kirjoitussessioissa olet vapaa kirjoittamaan omaa tekstiäsi yhdessä muiden kanssa turvallisessa ympäristössä.</p><p>Työpajan päätteeksi rohkaisemme osallistujia pois mukavuusalueiltaan ja esittämään tekstinsä toisille. Kokoamme materiaaleista myös lehden.</p><p>Ohjaajat Lois Armas ja Noora Pitkälä</p><p>Kieli: suomi,englanti ja espanja</p>",
        "images": []
      },
      "tags": [
        {
          "id": "linkedevents:yso:p19245",
          "name": "workshops"
        },
        {
          "id": "linkedevents:kulke:596",
          "name": "Muu"
        },
        {
          "id": "linkedevents:kulke:616",
          "name": "Näkyy TV-sovelluksessa"
        },
        {
          "id": "linkedevents:kulke:54",
          "name": "Ruotsi"
        },
        {
          "id": "linkedevents:kulke:732",
          "name": "Työpajat"
        },
        {
          "id": "linkedevents:kulke:47",
          "name": "Caisa"
        },
        {
          "id": "linkedevents:kulke:53",
          "name": "Suomi"
        },
        {
          "id": "linkedevents:kulke:673",
          "name": "Suomi (TV)"
        }
      ],
      "event_dates": {
        "starting_day": "2020-09-10T14:00:00.000Z",
        "ending_day": "2020-11-19T17:00:00.000Z",
        "additional_description": null
      }
    },
    {
      "id": "kulke:51810",
      "name": {
        "fi": "Kansantansseja elävän musiikin säestyksellä: Jordania & Norja – Folk Dances with Live Music",
        "en": "Folk Dances with Live music workshops: Jordan & Norway – Folk Dances with Live Music",
        "sv": "Folkdans med levande musik: Jordanien & Norge – Folk Dances with Live Music",
        "zh": null
      },
      "source_type": {
        "id": 1,
        "name": "LinkedEvents"
      },
      "info_url": "http://www.caisa.fi/fi/tapahtumat/event/EE47C50D99E33292132DE7BFDBEF5570/Kansantansseja_elavan_musiikin_saestyksella_Jordania_Norja",
      "modified_at": "2020-09-04T11:01:33.741Z",
      "location": {
        "lat": 60.18269729614258,
        "lon": 24.960548400878906,
        "address": {
          "street_address": "Kaikukatu 4, Helsinki",
          "postal_code": "00530",
          "locality": "Helsinki"
        }
      },
      "description": {
        "intro": "Opi musiikkia äidinkielenä!",
        "body": "<p>Opi musiikkia äidinkielenä!</p><p>Työpajassa voit opetella soittamaan tanssien taustaksi tai tanssimaan itse. Kaikenlaiset soittimet ja tanssitaidot ovat tervetulleita. Et tarvitse muuta kuin soittimesi, äänesi ja kehosi!</p><p>to 20.8. Ranska & Meksiko <br>ke 30.9. Portugali & Puola<br>ke 4.11. Jordania & Norja <br>ke 2.12. Saksa & Australia</p><p>Kesto: 2 tuntia (sis. väliajan)<br>Ikäsuositus: 13 v ylöspäin <br>Kieli: englanti, suomi, espanja ja arabia</p>",
        "images": [
          {
            "url": "http://www.caisa.fi/instancedata/prime_product_resurssivaraus/kulke/embeds/EventPic_670535.jpg",
            "copyright_holder": "",
            "license_type": {
              "id": 1,
              "name": "All rights reserved."
            }
          }
        ]
      },
      "tags": [
        {
          "id": "linkedevents:kulke:55",
          "name": "Englanti"
        },
        {
          "id": "linkedevents:kulke:616",
          "name": "Näkyy TV-sovelluksessa"
        },
        {
          "id": "linkedevents:kulke:54",
          "name": "Ruotsi"
        },
        {
          "id": "linkedevents:kulke:32",
          "name": "Tanssi"
        },
        {
          "id": "linkedevents:kulke:47",
          "name": "Caisa"
        },
        {
          "id": "linkedevents:kulke:53",
          "name": "Suomi"
        },
        {
          "id": "linkedevents:kulke:675",
          "name": "Englanti (TV)"
        },
        {
          "id": "linkedevents:kulke:674",
          "name": "Ruotsi (TV)"
        },
        {
          "id": "linkedevents:yso:p1278",
          "name": "dance (performing arts)"
        },
        {
          "id": "linkedevents:kulke:673",
          "name": "Suomi (TV)"
        }
      ],
      "event_dates": {
        "starting_day": "2020-11-04T15:00:00.000Z",
        "ending_day": null,
        "additional_description": null
      }
    }
  ],
  "tags": {
    "linkedevents:kulke:32": "Tanssi",
    "linkedevents:kulke:47": "Caisa",
    "linkedevents:kulke:53": "Suomi",
    "linkedevents:kulke:54": "Ruotsi",
    "linkedevents:kulke:55": "Englanti",
    "linkedevents:kulke:596": "Muu",
    "linkedevents:kulke:616": "Näkyy TV-sovelluksessa",
    "linkedevents:kulke:673": "Suomi (TV)",
    "linkedevents:kulke:674": "Ruotsi (TV)",
    "linkedevents:kulke:675": "Englanti (TV)",
    "linkedevents:kulke:732": "Työpajat",
    "linkedevents:yso:p1278": "dance (performing arts)",
    "linkedevents:yso:p19245": "workshops"
  }
}